riscv/testspace/test.vcd
$date
	Wed Dec 14 23:29:09 2022
$end
$version
	Icarus Verilog
$end
$timescale
	1ps
$end
$scope module testbench $end
$var reg 1 ! clk $end
$var reg 1 " rst $end
$scope module top $end
$var wire 1 ! EXCLK $end
$var wire 1 # Rx $end
$var wire 1 " btnC $end
$var wire 1 $ clk $end
$var wire 32 % cpu_dbgreg_dout [31:0] $end
$var wire 32 & cpu_ram_a [31:0] $end
$var wire 8 ' cpu_ram_dout [7:0] $end
$var wire 1 ( cpu_ram_wr $end
$var wire 8 ) hci_io_din [7:0] $end
$var wire 1 * hci_io_wr $end
$var wire 8 + hci_ram_din [7:0] $end
$var wire 1 , led $end
$var wire 1 - ram_en $end
$var wire 8 . ram_dout [7:0] $end
$var wire 17 / ram_a [16:0] $end
$var wire 1 0 program_finish $end
$var wire 1 1 hci_ram_wr $end
$var wire 8 2 hci_ram_dout [7:0] $end
$var wire 17 3 hci_ram_a [16:0] $end
$var wire 3 4 hci_io_sel [2:0] $end
$var wire 1 5 hci_io_full $end
$var wire 1 6 hci_io_en $end
$var wire 8 7 hci_io_dout [7:0] $end
$var wire 1 8 hci_active_out $end
$var wire 1 9 hci_active $end
$var wire 1 : cpumc_wr $end
$var wire 8 ; cpumc_din [7:0] $end
$var wire 32 < cpumc_a [31:0] $end
$var wire 1 = cpu_rdy $end
$var wire 8 > cpu_ram_din [7:0] $end
$var wire 1 ? Tx $end
$var reg 1 @ q_hci_io_en $end
$var reg 1 A rst $end
$var reg 1 B rst_delay $end
$scope module cpu0 $end
$var wire 1 $ clk_in $end
$var wire 32 C dbgreg_dout [31:0] $end
$var wire 32 D mem_a [31:0] $end
$var wire 8 E mem_din [7:0] $end
$var wire 8 F mem_dout [7:0] $end
$var wire 1 ( mem_wr $end
$var wire 1 = rdy_in $end
$var wire 1 G rst_in $end
$var wire 1 5 io_buffer_full $end
$upscope $end
$scope module hci0 $end
$var wire 1 $ clk $end
$var wire 32 H cpu_dbgreg_din [31:0] $end
$var wire 8 I io_din [7:0] $end
$var wire 1 6 io_en $end
$var wire 1 5 io_full $end
$var wire 3 J io_sel [2:0] $end
$var wire 1 * io_wr $end
$var wire 17 K ram_a [16:0] $end
$var wire 8 L ram_din [7:0] $end
$var wire 8 M ram_dout [7:0] $end
$var wire 1 A rst $end
$var wire 1 # rx $end
$var wire 1 N tx_full $end
$var wire 1 ? tx $end
$var wire 1 O rx_empty $end
$var wire 8 P rd_data [7:0] $end
$var wire 1 Q parity_err $end
$var wire 8 R io_in_rd_data [7:0] $end
$var wire 1 S io_in_full $end
$var wire 1 T io_in_empty $end
$var wire 8 U io_dout [7:0] $end
$var wire 32 V d_cpu_cycle_cnt [31:0] $end
$var wire 1 8 active $end
$var reg 17 W d_addr [16:0] $end
$var reg 3 X d_decode_cnt [2:0] $end
$var reg 2 Y d_err_code [1:0] $end
$var reg 17 Z d_execute_cnt [16:0] $end
$var reg 8 [ d_io_dout [7:0] $end
$var reg 8 \ d_io_in_wr_data [7:0] $end
$var reg 1 ] d_io_in_wr_en $end
$var reg 1 ^ d_program_finish $end
$var reg 5 _ d_state [4:0] $end
$var reg 8 ` d_tx_data [7:0] $end
$var reg 1 a d_wr_en $end
$var reg 1 b io_in_rd_en $end
$var reg 1 0 program_finish $end
$var reg 17 c q_addr [16:0] $end
$var reg 32 d q_cpu_cycle_cnt [31:0] $end
$var reg 3 e q_decode_cnt [2:0] $end
$var reg 2 f q_err_code [1:0] $end
$var reg 17 g q_execute_cnt [16:0] $end
$var reg 8 h q_io_dout [7:0] $end
$var reg 1 i q_io_en $end
$var reg 8 j q_io_in_wr_data [7:0] $end
$var reg 1 k q_io_in_wr_en $end
$var reg 5 l q_state [4:0] $end
$var reg 8 m q_tx_data [7:0] $end
$var reg 1 n q_wr_en $end
$var reg 1 1 ram_wr $end
$var reg 1 o rd_en $end
$scope module io_in_fifo $end
$var wire 10 p addr_bits_wide_1 [9:0] $end
$var wire 1 $ clk $end
$var wire 1 q d_empty $end
$var wire 1 r d_full $end
$var wire 1 T empty $end
$var wire 1 S full $end
$var wire 8 s rd_data [7:0] $end
$var wire 1 b rd_en $end
$var wire 1 t rd_en_prot $end
$var wire 1 A reset $end
$var wire 8 u wr_data [7:0] $end
$var wire 1 k wr_en $end
$var wire 1 v wr_en_prot $end
$var wire 10 w d_wr_ptr [9:0] $end
$var wire 10 x d_rd_ptr [9:0] $end
$var wire 8 y d_data [7:0] $end
$var reg 1 z q_empty $end
$var reg 1 { q_full $end
$var reg 10 | q_rd_ptr [9:0] $end
$var reg 10 } q_wr_ptr [9:0] $end
$upscope $end
$scope module uart_blk $end
$var wire 1 $ clk $end
$var wire 1 ~ d_rx_parity_err $end
$var wire 1 Q parity_err $end
$var wire 1 o rd_en $end
$var wire 1 A reset $end
$var wire 1 # rx $end
$var wire 8 !" tx_data [7:0] $end
$var wire 1 n wr_en $end
$var wire 1 N tx_full $end
$var wire 8 "" tx_fifo_rd_data [7:0] $end
$var wire 1 #" tx_fifo_empty $end
$var wire 1 $" tx_done_tick $end
$var wire 1 ? tx $end
$var wire 1 %" rx_parity_err $end
$var wire 8 &" rx_fifo_wr_data [7:0] $end
$var wire 1 O rx_empty $end
$var wire 1 '" rx_done_tick $end
$var wire 8 (" rx_data [7:0] $end
$var wire 1 )" baud_clk_tick $end
$var reg 1 *" q_rx_parity_err $end
$scope module uart_baud_clk_blk $end
$var wire 1 $ clk $end
$var wire 1 A reset $end
$var wire 16 +" d_cnt [15:0] $end
$var wire 1 )" baud_clk_tick $end
$var reg 16 ," q_cnt [15:0] $end
$upscope $end
$scope module uart_rx_blk $end
$var wire 1 )" baud_clk_tick $end
$var wire 1 $ clk $end
$var wire 1 A reset $end
$var wire 1 # rx $end
$var wire 8 -" rx_data [7:0] $end
$var wire 1 '" rx_done_tick $end
$var wire 1 %" parity_err $end
$var reg 8 ." d_data [7:0] $end
$var reg 3 /" d_data_bit_idx [2:0] $end
$var reg 1 0" d_done_tick $end
$var reg 4 1" d_oversample_tick_cnt [3:0] $end
$var reg 1 2" d_parity_err $end
$var reg 5 3" d_state [4:0] $end
$var reg 8 4" q_data [7:0] $end
$var reg 3 5" q_data_bit_idx [2:0] $end
$var reg 1 '" q_done_tick $end
$var reg 4 6" q_oversample_tick_cnt [3:0] $end
$var reg 1 %" q_parity_err $end
$var reg 1 7" q_rx $end
$var reg 5 8" q_state [4:0] $end
$upscope $end
$scope module uart_rx_fifo $end
$var wire 3 9" addr_bits_wide_1 [2:0] $end
$var wire 1 $ clk $end
$var wire 1 :" d_empty $end
$var wire 1 ;" d_full $end
$var wire 1 O empty $end
$var wire 1 <" full $end
$var wire 8 =" rd_data [7:0] $end
$var wire 1 o rd_en $end
$var wire 1 >" rd_en_prot $end
$var wire 1 A reset $end
$var wire 8 ?" wr_data [7:0] $end
$var wire 1 '" wr_en $end
$var wire 1 @" wr_en_prot $end
$var wire 3 A" d_wr_ptr [2:0] $end
$var wire 3 B" d_rd_ptr [2:0] $end
$var wire 8 C" d_data [7:0] $end
$var reg 1 D" q_empty $end
$var reg 1 E" q_full $end
$var reg 3 F" q_rd_ptr [2:0] $end
$var reg 3 G" q_wr_ptr [2:0] $end
$upscope $end
$scope module uart_tx_blk $end
$var wire 1 )" baud_clk_tick $end
$var wire 1 $ clk $end
$var wire 1 A reset $end
$var wire 1 ? tx $end
$var wire 1 $" tx_done_tick $end
$var wire 1 H" tx_start $end
$var wire 8 I" tx_data [7:0] $end
$var reg 4 J" d_baud_clk_tick_cnt [3:0] $end
$var reg 8 K" d_data [7:0] $end
$var reg 3 L" d_data_bit_idx [2:0] $end
$var reg 1 M" d_parity_bit $end
$var reg 5 N" d_state [4:0] $end
$var reg 1 O" d_tx $end
$var reg 1 P" d_tx_done_tick $end
$var reg 4 Q" q_baud_clk_tick_cnt [3:0] $end
$var reg 8 R" q_data [7:0] $end
$var reg 3 S" q_data_bit_idx [2:0] $end
$var reg 1 T" q_parity_bit $end
$var reg 5 U" q_state [4:0] $end
$var reg 1 V" q_tx $end
$var reg 1 $" q_tx_done_tick $end
$upscope $end
$scope module uart_tx_fifo $end
$var wire 10 W" addr_bits_wide_1 [9:0] $end
$var wire 1 $ clk $end
$var wire 1 X" d_empty $end
$var wire 1 Y" d_full $end
$var wire 1 #" empty $end
$var wire 1 N full $end
$var wire 8 Z" rd_data [7:0] $end
$var wire 1 $" rd_en $end
$var wire 1 [" rd_en_prot $end
$var wire 1 A reset $end
$var wire 8 \" wr_data [7:0] $end
$var wire 1 n wr_en $end
$var wire 1 ]" wr_en_prot $end
$var wire 10 ^" d_wr_ptr [9:0] $end
$var wire 10 _" d_rd_ptr [9:0] $end
$var wire 8 `" d_data [7:0] $end
$var reg 1 a" q_empty $end
$var reg 1 b" q_full $end
$var reg 10 c" q_rd_ptr [9:0] $end
$var reg 10 d" q_wr_ptr [9:0] $end
$upscope $end
$upscope $end
$upscope $end
$scope module ram0 $end
$var wire 17 e" a_in [16:0] $end
$var wire 1 $ clk_in $end
$var wire 8 f" d_in [7:0] $end
$var wire 1 - en_in $end
$var wire 1 g" r_nw_in $end
$var wire 1 h" ram_bram_we $end
$var wire 8 i" ram_bram_dout [7:0] $end
$var wire 8 j" d_out [7:0] $end
$scope module ram_bram $end
$var wire 17 k" addr_a [16:0] $end
$var wire 1 $ clk $end
$var wire 8 l" din_a [7:0] $end
$var wire 8 m" dout_a [7:0] $end
$var wire 1 h" we $end
$var reg 17 n" q_addr_a [16:0] $end
$var integer 32 o" i [31:0] $end
$upscope $end
$upscope $end
$upscope $end
$upscope $end
$enddefinitions $end
#0
$dumpvars
b100000000000000000 o"
bx n"
bx m"
bz l"
bz k"
bx j"
bx i"
xh"
xg"
bz f"
bz e"
bx d"
bx c"
xb"
xa"
bx `"
bx _"
bx ^"
x]"
bx \"
0["
bx Z"
xY"
xX"
b1 W"
1V"
b1 U"
0T"
b0 S"
b0 R"
b0 Q"
0P"
1O"
b1 N"
0M"
b0 L"
b0 K"
b0 J"
bx I"
xH"
bx G"
bx F"
xE"
xD"
bx C"
bx B"
bx A"
0@"
b0 ?"
0>"
bx ="
x<"
x;"
x:"
b1 9"
b1 8"
17"
b0 6"
b0 5"
b0 4"
b1 3"
02"
b0 1"
00"
b0 /"
b0 ."
b0 -"
b0 ,"
b1 +"
0*"
0)"
bx ("
0'"
b0 &"
0%"
0$"
x#"
bx ""
bx !"
0~
bx }
bx |
x{
xz
bx y
bx x
bx w
xv
bx u
0t
bx s
xr
xq
b1 p
0o
xn
bx m
bx l
xk
bx j
xi
bx h
bx g
bx f
bx e
bx d
bx c
0b
0a
b0 `
bx _
0^
0]
b0 \
b0 [
bx Z
bx Y
bx X
bx W
bx V
bx U
xT
xS
bx R
0Q
bx P
xO
xN
bx M
bx L
bx K
bz J
bz I
bz H
1G
bz F
bx E
bz D
bz C
1B
1A
x@
1?
bx >
1=
bz <
bz ;
z:
09
x8
bx 7
x6
x5
bz 4
bx 3
bx 2
01
x0
bz /
bx .
x-
0,
bx +
z*
bz )
z(
bz '
bz &
bz %
0$
z#
1"
0!
$end
#1000
1q
0r
0;"
1:"
1X"
0Y"
b0 w
b0 x
b0 A"
b0 B"
0H"
b0 ^"
b0 _"
0v
0]"
b0 Y
b0 W
b0 Z
b0 X
b1 _
b0 V
bz n"
0S
0{
1T
1z
b0 }
b0 |
0<"
0E"
1O
1D"
b0 G"
b0 F"
05
0N
0b"
1#"
1a"
b0 d"
b0 c"
b0 7
b0 U
b0 h
b0 d
0i
b0 j
b0 u
0k
0n
b0 m
b0 !"
b0 \"
b0 f
b0 3
b0 K
b0 c
b0 g
b0 e
18
b1 l
1$
1!
#2000
0$
0!
#3000
1$
1!
#4000
0$
0!
#5000
1$
1!
#6000
0$
0!
#7000
1$
1!
#8000
0$
0!
#9000
1$
1!
#10000
0$
0!
#11000
1$
1!
#12000
0$
0!
#13000
1$
1!
#14000
0$
0!
#15000
1$
1!
#16000
0$
0!
#17000
1$
1!
#18000
0$
0!
#19000
1$
1!
#20000
0$
0!
#21000
1$
1!
#22000
0$
0!
#23000
1$
1!
#24000
0$
0!
#25000
1$
1!
#26000
0$
0!
#27000
1$
1!
#28000
0$
0!
#29000
1$
1!
#30000
0$
0!
#31000
1$
1!
#32000
0$
0!
#33000
1$
1!
#34000
0$
0!
#35000
1$
1!
#36000
0$
0!
#37000
1$
1!
#38000
0$
0!
#39000
1$
1!
#40000
0$
0!
#41000
1$
1!
#42000
0$
0!
#43000
1$
1!
#44000
0$
0!
#45000
1$
1!
#46000
0$
0!
#47000
1$
1!
#48000
0$
0!
#49000
1$
1!
#50000
0"
0$
0!
#51000
0B
1$
1!
#52000
0$
0!
#53000
xG
0A
1$
1!
#54000
0$
0!
#55000
0G
b10 +"
00
xi
b1 ,"
z7"
1$
1!
#56000
0$
0!
#57000
b11 +"
b10 ,"
1$
1!
#58000
0$
0!
#59000
b100 +"
b11 ,"
1$
1!
#60000
0$
0!
#61000
b101 +"
b100 ,"
1$
1!
#62000
0$
0!
#63000
b110 +"
b101 ,"
1$
1!
#64000
0$
0!
#65000
b111 +"
b110 ,"
1$
1!
#66000
0$
0!
#67000
b1000 +"
b111 ,"
1$
1!
#68000
0$
0!
#69000
b1001 +"
b1000 ,"
1$
1!
#70000
0$
0!
#71000
b1010 +"
b1001 ,"
1$
1!
#72000
0$
0!
#73000
b1011 +"
b1010 ,"
1$
1!
#74000
0$
0!
#75000
b1100 +"
b1011 ,"
1$
1!
#76000
0$
0!
#77000
b1101 +"
b1100 ,"
1$
1!
#78000
0$
0!
#79000
b1110 +"
b1101 ,"
1$
1!
#80000
0$
0!
#81000
b1111 +"
b1110 ,"
1$
1!
#82000
0$
0!
#83000
b10000 +"
b1111 ,"
1$
1!
#84000
0$
0!
#85000
b10001 +"
b10000 ,"
1$
1!
#86000
0$
0!
#87000
b10010 +"
b10001 ,"
1$
1!
#88000
0$
0!
#89000
b10011 +"
b10010 ,"
1$
1!
#90000
0$
0!
#91000
b10100 +"
b10011 ,"
1$
1!
#92000
0$
0!
#93000
b10101 +"
b10100 ,"
1$
1!
#94000
0$
0!
#95000
b10110 +"
b10101 ,"
1$
1!
#96000
0$
0!
#97000
b10111 +"
b10110 ,"
1$
1!
#98000
0$
0!
#99000
b11000 +"
b10111 ,"
1$
1!
#100000
0$
0!
#101000
b11001 +"
b11000 ,"
1$
1!
#102000
0$
0!
#103000
b11010 +"
b11001 ,"
1$
1!
#104000
0$
0!
#105000
b11011 +"
b11010 ,"
1$
1!
#106000
0$
0!
#107000
b11100 +"
b11011 ,"
1$
1!
#108000
0$
0!
#109000
b11101 +"
b11100 ,"
1$
1!
#110000
0$
0!
#111000
b11110 +"
b11101 ,"
1$
1!
#112000
0$
0!
#113000
b11111 +"
b11110 ,"
1$
1!
#114000
0$
0!
#115000
b100000 +"
b11111 ,"
1$
1!
#116000
0$
0!
#117000
b100001 +"
b100000 ,"
1$
1!
#118000
0$
0!
#119000
b100010 +"
b100001 ,"
1$
1!
#120000
0$
0!
#121000
b100011 +"
b100010 ,"
1$
1!
#122000
0$
0!
#123000
b100100 +"
b100011 ,"
1$
1!
#124000
0$
0!
#125000
b100101 +"
b100100 ,"
1$
1!
#126000
0$
0!
#127000
b100110 +"
b100101 ,"
1$
1!
#128000
0$
0!
#129000
b100111 +"
b100110 ,"
1$
1!
#130000
0$
0!
#131000
b101000 +"
b100111 ,"
1$
1!
#132000
0$
0!
#133000
b101001 +"
b101000 ,"
1$
1!
#134000
0$
0!
#135000
b101010 +"
b101001 ,"
1$
1!
#136000
0$
0!
#137000
b101011 +"
b101010 ,"
1$
1!
#138000
0$
0!
#139000
b101100 +"
b101011 ,"
1$
1!
#140000
0$
0!
#141000
b101101 +"
b101100 ,"
1$
1!
#142000
0$
0!
#143000
b101110 +"
b101101 ,"
1$
1!
#144000
0$
0!
#145000
b101111 +"
b101110 ,"
1$
1!
#146000
0$
0!
#147000
b110000 +"
b101111 ,"
1$
1!
#148000
0$
0!
#149000
b110001 +"
b110000 ,"
1$
1!
#150000
0$
0!
#151000
b110010 +"
b110001 ,"
1$
1!
#152000
0$
0!
#153000
b110011 +"
b110010 ,"
1$
1!
#154000
0$
0!
#155000
b110100 +"
b110011 ,"
1$
1!
#156000
0$
0!
#157000
b110101 +"
b110100 ,"
1$
1!
#158000
0$
0!
#159000
b1 1"
b1 J"
b0 +"
1)"
b110101 ,"
1$
1!
#160000
0$
0!
#161000
b1 +"
0)"
b1 Q"
b1 6"
b0 ,"
1$
1!
#162000
0$
0!
#163000
b10 +"
b1 ,"
1$
1!
#164000
0$
0!
#165000
b11 +"
b10 ,"
1$
1!
#166000
0$
0!
#167000
b100 +"
b11 ,"
1$
1!
#168000
0$
0!
#169000
b101 +"
b100 ,"
1$
1!
#170000
0$
0!
#171000
b110 +"
b101 ,"
1$
1!
#172000
0$
0!
#173000
b111 +"
b110 ,"
1$
1!
#174000
0$
0!
#175000
b1000 +"
b111 ,"
1$
1!
#176000
0$
0!
#177000
b1001 +"
b1000 ,"
1$
1!
#178000
0$
0!
#179000
b1010 +"
b1001 ,"
1$
1!
#180000
0$
0!
#181000
b1011 +"
b1010 ,"
1$
1!
#182000
0$
0!
#183000
b1100 +"
b1011 ,"
1$
1!
#184000
0$
0!
#185000
b1101 +"
b1100 ,"
1$
1!
#186000
0$
0!
#187000
b1110 +"
b1101 ,"
1$
1!
#188000
0$
0!
#189000
b1111 +"
b1110 ,"
1$
1!
#190000
0$
0!
#191000
b10000 +"
b1111 ,"
1$
1!
#192000
0$
0!
#193000
b10001 +"
b10000 ,"
1$
1!
#194000
0$
0!
#195000
b10010 +"
b10001 ,"
1$
1!
#196000
0$
0!
#197000
b10011 +"
b10010 ,"
1$
1!
#198000
0$
0!
#199000
b10100 +"
b10011 ,"
1$
1!
#200000
0$
0!
#201000
b10101 +"
b10100 ,"
1$
1!
#202000
0$
0!
#203000
b10110 +"
b10101 ,"
1$
1!
#204000
0$
0!
#205000
b10111 +"
b10110 ,"
1$
1!
#206000
0$
0!
#207000
b11000 +"
b10111 ,"
1$
1!
#208000
0$
0!
#209000
b11001 +"
b11000 ,"
1$
1!
#210000
0$
0!
#211000
b11010 +"
b11001 ,"
1$
1!
#212000
0$
0!
#213000
b11011 +"
b11010 ,"
1$
1!
#214000
0$
0!
#215000
b11100 +"
b11011 ,"
1$
1!
#216000
0$
0!
#217000
b11101 +"
b11100 ,"
1$
1!
#218000
0$
0!
#219000
b11110 +"
b11101 ,"
1$
1!
#220000
0$
0!
#221000
b11111 +"
b11110 ,"
1$
1!
#222000
0$
0!
#223000
b100000 +"
b11111 ,"
1$
1!
#224000
0$
0!
#225000
b100001 +"
b100000 ,"
1$
1!
#226000
0$
0!
#227000
b100010 +"
b100001 ,"
1$
1!
#228000
0$
0!
#229000
b100011 +"
b100010 ,"
1$
1!
#230000
0$
0!
#231000
b100100 +"
b100011 ,"
1$
1!
#232000
0$
0!
#233000
b100101 +"
b100100 ,"
1$
1!
#234000
0$
0!
#235000
b100110 +"
b100101 ,"
1$
1!
#236000
0$
0!
#237000
b100111 +"
b100110 ,"
1$
1!
#238000
0$
0!
#239000
b101000 +"
b100111 ,"
1$
1!
#240000
0$
0!
#241000
b101001 +"
b101000 ,"
1$
1!
#242000
0$
0!
#243000
b101010 +"
b101001 ,"
1$
1!
#244000
0$
0!
#245000
b101011 +"
b101010 ,"
1$
1!
#246000
0$
0!
#247000
b101100 +"
b101011 ,"
1$
1!
#248000
0$
0!
#249000
b101101 +"
b101100 ,"
1$
1!
#250000
0$
0!
#251000
b101110 +"
b101101 ,"
1$
1!
#252000
0$
0!
#253000
b101111 +"
b101110 ,"
1$
1!
#254000
0$
0!
#255000
b110000 +"
b101111 ,"
1$
1!
#256000
0$
0!
#257000
b110001 +"
b110000 ,"
1$
1!
#258000
0$
0!
#259000
b110010 +"
b110001 ,"
1$
1!
#260000
0$
0!
#261000
b110011 +"
b110010 ,"
1$
1!
#262000
0$
0!
#263000
b110100 +"
b110011 ,"
1$
1!
#264000
0$
0!
#265000
b110101 +"
b110100 ,"
1$
1!
#266000
0$
0!
#267000
b10 1"
b10 J"
b0 +"
1)"
b110101 ,"
1$
1!
#268000
0$
0!
#269000
b1 +"
0)"
b10 Q"
b10 6"
b0 ,"
1$
1!
#270000
0$
0!
#271000
b10 +"
b1 ,"
1$
1!
#272000
0$
0!
#273000
b11 +"
b10 ,"
1$
1!
#274000
0$
0!
#275000
b100 +"
b11 ,"
1$
1!
#276000
0$
0!
#277000
b101 +"
b100 ,"
1$
1!
#278000
0$
0!
#279000
b110 +"
b101 ,"
1$
1!
#280000
0$
0!
#281000
b111 +"
b110 ,"
1$
1!
#282000
0$
0!
#283000
b1000 +"
b111 ,"
1$
1!
#284000
0$
0!
#285000
b1001 +"
b1000 ,"
1$
1!
#286000
0$
0!
#287000
b1010 +"
b1001 ,"
1$
1!
#288000
0$
0!
#289000
b1011 +"
b1010 ,"
1$
1!
#290000
0$
0!
#291000
b1100 +"
b1011 ,"
1$
1!
#292000
0$
0!
#293000
b1101 +"
b1100 ,"
1$
1!
#294000
0$
0!
#295000
b1110 +"
b1101 ,"
1$
1!
#296000
0$
0!
#297000
b1111 +"
b1110 ,"
1$
1!
#298000
0$
0!
#299000
b10000 +"
b1111 ,"
1$
1!
#300000
0$
0!
#301000
b10001 +"
b10000 ,"
1$
1!
#302000
0$
0!
#303000
b10010 +"
b10001 ,"
1$
1!
#304000
0$
0!
#305000
b10011 +"
b10010 ,"
1$
1!
#306000
0$
0!
#307000
b10100 +"
b10011 ,"
1$
1!
#308000
0$
0!
#309000
b10101 +"
b10100 ,"
1$
1!
#310000
0$
0!
#311000
b10110 +"
b10101 ,"
1$
1!
#312000
0$
0!
#313000
b10111 +"
b10110 ,"
1$
1!
#314000
0$
0!
#315000
b11000 +"
b10111 ,"
1$
1!
#316000
0$
0!
#317000
b11001 +"
b11000 ,"
1$
1!
#318000
0$
0!
#319000
b11010 +"
b11001 ,"
1$
1!
#320000
0$
0!
#321000
b11011 +"
b11010 ,"
1$
1!
#322000
0$
0!
#323000
b11100 +"
b11011 ,"
1$
1!
#324000
0$
0!
#325000
b11101 +"
b11100 ,"
1$
1!
#326000
0$
0!
#327000
b11110 +"
b11101 ,"
1$
1!
#328000
0$
0!
#329000
b11111 +"
b11110 ,"
1$
1!
#330000
0$
0!
#331000
b100000 +"
b11111 ,"
1$
1!
#332000
0$
0!
#333000
b100001 +"
b100000 ,"
1$
1!
#334000
0$
0!
#335000
b100010 +"
b100001 ,"
1$
1!
#336000
0$
0!
#337000
b100011 +"
b100010 ,"
1$
1!
#338000
0$
0!
#339000
b100100 +"
b100011 ,"
1$
1!
#340000
0$
0!
#341000
b100101 +"
b100100 ,"
1$
1!
#342000
0$
0!
#343000
b100110 +"
b100101 ,"
1$
1!
#344000
0$
0!
#345000
b100111 +"
b100110 ,"
1$
1!
#346000
0$
0!
#347000
b101000 +"
b100111 ,"
1$
1!
#348000
0$
0!
#349000
b101001 +"
b101000 ,"
1$
1!
#350000
0$
0!
#351000
b101010 +"
b101001 ,"
1$
1!
#352000
0$
0!
#353000
b101011 +"
b101010 ,"
1$
1!
#354000
0$
0!
#355000
b101100 +"
b101011 ,"
1$
1!
#356000
0$
0!
#357000
b101101 +"
b101100 ,"
1$
1!
#358000
0$
0!
#359000
b101110 +"
b101101 ,"
1$
1!
#360000
0$
0!
#361000
b101111 +"
b101110 ,"
1$
1!
#362000
0$
0!
#363000
b110000 +"
b101111 ,"
1$
1!
#364000
0$
0!
#365000
b110001 +"
b110000 ,"
1$
1!
#366000
0$
0!
#367000
b110010 +"
b110001 ,"
1$
1!
#368000
0$
0!
#369000
b110011 +"
b110010 ,"
1$
1!
#370000
0$
0!
#371000
b110100 +"
b110011 ,"
1$
1!
#372000
0$
0!
#373000
b110101 +"
b110100 ,"
1$
1!
#374000
0$
0!
#375000
b11 1"
b11 J"
b0 +"
1)"
b110101 ,"
1$
1!
#376000
0$
0!
#377000
b1 +"
0)"
b11 Q"
b11 6"
b0 ,"
1$
1!
#378000
0$
0!
#379000
b10 +"
b1 ,"
1$
1!
#380000
0$
0!
#381000
b11 +"
b10 ,"
1$
1!
#382000
0$
0!
#383000
b100 +"
b11 ,"
1$
1!
#384000
0$
0!
#385000
b101 +"
b100 ,"
1$
1!
#386000
0$
0!
#387000
b110 +"
b101 ,"
1$
1!
#388000
0$
0!
#389000
b111 +"
b110 ,"
1$
1!
#390000
0$
0!
#391000
b1000 +"
b111 ,"
1$
1!
#392000
0$
0!
#393000
b1001 +"
b1000 ,"
1$
1!
#394000
0$
0!
#395000
b1010 +"
b1001 ,"
1$
1!
#396000
0$
0!
#397000
b1011 +"
b1010 ,"
1$
1!
#398000
0$
0!
#399000
b1100 +"
b1011 ,"
1$
1!
#400000
0$
0!
#401000
b1101 +"
b1100 ,"
1$
1!
#402000
0$
0!
#403000
b1110 +"
b1101 ,"
1$
1!
#404000
0$
0!
#405000
b1111 +"
b1110 ,"
1$
1!
#406000
0$
0!
#407000
b10000 +"
b1111 ,"
1$
1!
#408000
0$
0!
#409000
b10001 +"
b10000 ,"
1$
1!
#410000
0$
0!
#411000
b10010 +"
b10001 ,"
1$
1!
#412000
0$
0!
#413000
b10011 +"
b10010 ,"
1$
1!
#414000
0$
0!
#415000
b10100 +"
b10011 ,"
1$
1!
#416000
0$
0!
#417000
b10101 +"
b10100 ,"
1$
1!
#418000
0$
0!
#419000
b10110 +"
b10101 ,"
1$
1!
#420000
0$
0!
#421000
b10111 +"
b10110 ,"
1$
1!
#422000
0$
0!
#423000
b11000 +"
b10111 ,"
1$
1!
#424000
0$
0!
#425000
b11001 +"
b11000 ,"
1$
1!
#426000
0$
0!
#427000
b11010 +"
b11001 ,"
1$
1!
#428000
0$
0!
#429000
b11011 +"
b11010 ,"
1$
1!
#430000
0$
0!
#431000
b11100 +"
b11011 ,"
1$
1!
#432000
0$
0!
#433000
b11101 +"
b11100 ,"
1$
1!
#434000
0$
0!
#435000
b11110 +"
b11101 ,"
1$
1!
#436000
0$
0!
#437000
b11111 +"
b11110 ,"
1$
1!
#438000
0$
0!
#439000
b100000 +"
b11111 ,"
1$
1!
#440000
0$
0!
#441000
b100001 +"
b100000 ,"
1$
1!
#442000
0$
0!
#443000
b100010 +"
b100001 ,"
1$
1!
#444000
0$
0!
#445000
b100011 +"
b100010 ,"
1$
1!
#446000
0$
0!
#447000
b100100 +"
b100011 ,"
1$
1!
#448000
0$
0!
#449000
b100101 +"
b100100 ,"
1$
1!
#450000
0$
0!
#451000
b100110 +"
b100101 ,"
1$
1!
#452000
0$
0!
#453000
b100111 +"
b100110 ,"
1$
1!
#454000
0$
0!
#455000
b101000 +"
b100111 ,"
1$
1!
#456000
0$
0!
#457000
b101001 +"
b101000 ,"
1$
1!
#458000
0$
0!
#459000
b101010 +"
b101001 ,"
1$
1!
#460000
0$
0!
#461000
b101011 +"
b101010 ,"
1$
1!
#462000
0$
0!
#463000
b101100 +"
b101011 ,"
1$
1!
#464000
0$
0!
#465000
b101101 +"
b101100 ,"
1$
1!
#466000
0$
0!
#467000
b101110 +"
b101101 ,"
1$
1!
#468000
0$
0!
#469000
b101111 +"
b101110 ,"
1$
1!
#470000
0$
0!
#471000
b110000 +"
b101111 ,"
1$
1!
#472000
0$
0!
#473000
b110001 +"
b110000 ,"
1$
1!
#474000
0$
0!
#475000
b110010 +"
b110001 ,"
1$
1!
#476000
0$
0!
#477000
b110011 +"
b110010 ,"
1$
1!
#478000
0$
0!
#479000
b110100 +"
b110011 ,"
1$
1!
#480000
0$
0!
#481000
b110101 +"
b110100 ,"
1$
1!
#482000
0$
0!
#483000
b100 1"
b100 J"
b0 +"
1)"
b110101 ,"
1$
1!
#484000
0$
0!
#485000
b1 +"
0)"
b100 Q"
b100 6"
b0 ,"
1$
1!
#486000
0$
0!
#487000
b10 +"
b1 ,"
1$
1!
#488000
0$
0!
#489000
b11 +"
b10 ,"
1$
1!
#490000
0$
0!
#491000
b100 +"
b11 ,"
1$
1!
#492000
0$
0!
#493000
b101 +"
b100 ,"
1$
1!
#494000
0$
0!
#495000
b110 +"
b101 ,"
1$
1!
#496000
0$
0!
#497000
b111 +"
b110 ,"
1$
1!
#498000
0$
0!
#499000
b1000 +"
b111 ,"
1$
1!
#500000
0$
0!
#501000
b1001 +"
b1000 ,"
1$
1!
#502000
0$
0!
#503000
b1010 +"
b1001 ,"
1$
1!
#504000
0$
0!
#505000
b1011 +"
b1010 ,"
1$
1!
#506000
0$
0!
#507000
b1100 +"
b1011 ,"
1$
1!
#508000
0$
0!
#509000
b1101 +"
b1100 ,"
1$
1!
#510000
0$
0!
#511000
b1110 +"
b1101 ,"
1$
1!
#512000
0$
0!
#513000
b1111 +"
b1110 ,"
1$
1!
#514000
0$
0!
#515000
b10000 +"
b1111 ,"
1$
1!
#516000
0$
0!
#517000
b10001 +"
b10000 ,"
1$
1!
#518000
0$
0!
#519000
b10010 +"
b10001 ,"
1$
1!
#520000
0$
0!
#521000
b10011 +"
b10010 ,"
1$
1!
#522000
0$
0!
#523000
b10100 +"
b10011 ,"
1$
1!
#524000
0$
0!
#525000
b10101 +"
b10100 ,"
1$
1!
#526000
0$
0!
#527000
b10110 +"
b10101 ,"
1$
1!
#528000
0$
0!
#529000
b10111 +"
b10110 ,"
1$
1!
#530000
0$
0!
#531000
b11000 +"
b10111 ,"
1$
1!
#532000
0$
0!
#533000
b11001 +"
b11000 ,"
1$
1!
#534000
0$
0!
#535000
b11010 +"
b11001 ,"
1$
1!
#536000
0$
0!
#537000
b11011 +"
b11010 ,"
1$
1!
#538000
0$
0!
#539000
b11100 +"
b11011 ,"
1$
1!
